<svg width="20" height="20" viewBox="0 0 20 20" fill="none" xmlns="http://www.w3.org/2000/svg">
<g opacity="0.7">
<path d="M10.002 17.5339C7.95195 17.5339 7.71029 17.5231 6.91029 17.4881C6.28643 17.4676 5.67065 17.3407 5.08945 17.1131C4.08388 16.7217 3.28874 15.9263 2.89779 14.9206C2.67887 14.3373 2.5608 13.721 2.54862 13.0981C2.50195 12.2997 2.50195 12.0381 2.50195 10.0039C2.50195 7.94807 2.51279 7.70807 2.54862 6.91224C2.56107 6.29017 2.67914 5.67475 2.89779 5.09224C3.28831 4.08518 4.08475 3.28905 5.09195 2.89891C5.67416 2.67907 6.28974 2.56069 6.91195 2.54891C7.70779 2.50391 7.96945 2.50391 10.002 2.50391C12.0686 2.50391 12.3061 2.51474 13.0936 2.54891C13.7174 2.5608 14.3347 2.67916 14.9186 2.89891C15.9255 3.28949 16.7218 4.08547 17.1128 5.09224C17.3354 5.68323 17.4541 6.30828 17.4636 6.93974C17.5103 7.73807 17.5103 7.99891 17.5103 10.0322C17.5103 12.0656 17.4986 12.3322 17.4636 13.1214C17.4512 13.7449 17.3329 14.3618 17.1136 14.9456C16.7217 15.952 15.9253 16.7477 14.9186 17.1389C14.3355 17.3574 13.7195 17.4755 13.097 17.4881C12.3011 17.5339 12.0403 17.5339 10.002 17.5339ZM9.97362 3.82307C7.93529 3.82307 7.72362 3.83307 6.92779 3.86891C6.45277 3.8752 5.98235 3.96286 5.53695 4.12807C4.87925 4.37975 4.35881 4.89807 4.10445 5.55474C3.93796 6.00499 3.85029 6.48056 3.84529 6.96057C3.80112 7.76807 3.80112 7.97974 3.80112 10.0039C3.80112 12.0039 3.80862 12.2464 3.84529 13.0489C3.85275 13.5241 3.94037 13.9946 4.10445 14.4406C4.35918 15.0968 4.87953 15.6147 5.53695 15.8664C5.98205 16.0327 6.45266 16.1204 6.92779 16.1256C7.73445 16.1722 7.94695 16.1722 9.97362 16.1722C12.0178 16.1722 12.2295 16.1622 13.0186 16.1256C13.494 16.1198 13.9647 16.0321 14.4103 15.8664C15.064 15.6126 15.5811 15.0958 15.8353 14.4422C16.0015 13.9916 16.0891 13.5158 16.0945 13.0356H16.1036C16.1395 12.2389 16.1395 12.0264 16.1395 9.99057C16.1395 7.95474 16.1303 7.74057 16.0945 6.94474C16.087 6.47011 15.9994 6.00017 15.8353 5.55474C15.5816 4.90022 15.0645 4.38248 14.4103 4.12807C13.9648 3.96202 13.494 3.87434 13.0186 3.86891C12.2128 3.82307 12.002 3.82307 9.97362 3.82307ZM10.002 13.8531C8.44361 13.8541 7.03814 12.9162 6.441 11.4768C5.84387 10.0374 6.17271 8.38001 7.27415 7.27762C8.37558 6.17523 10.0327 5.84496 11.4726 6.44085C12.9125 7.03673 13.8516 8.4414 13.852 9.99974C13.8497 12.1256 12.1278 13.8489 10.002 13.8531ZM10.002 7.49807C8.62124 7.49807 7.50195 8.61736 7.50195 9.99807C7.50195 11.3788 8.62124 12.4981 10.002 12.4981C11.3827 12.4981 12.502 11.3788 12.502 9.99807C12.4987 8.61869 11.3813 7.50128 10.002 7.49807ZM14.002 6.90391C13.5065 6.90207 13.106 6.4994 13.107 6.00391C13.1079 5.50843 13.5098 5.10725 14.0053 5.10725C14.5008 5.10725 14.9027 5.50842 14.9036 6.00391C14.9038 6.24296 14.8089 6.47226 14.6397 6.64114C14.4705 6.81002 14.241 6.90457 14.002 6.90391Z" fill="white"/>
</g>
</svg>
